%YAML 1.1
%TAG !u! tag:unity3d.com,2011:
--- !u!78 &1
TagManager:
  serializedVersion: 2
  tags: []
  layers:
  - Default
  - TransparentFX
  - Ignore Raycast
  - 
  - Water
  - UI
  - 
  - 
  - Player
  - Enemy
  - Wall
  - Floor
  - 
  - 
  - 
  - 
  - 
  - 
  - 
  - 
  - 
  - 
  - 
  - 
  - 
  - 
  - 
  - 
  - 
  - 
  - 
  - 
  m_SortingLayers:
  - name: Floor
    uniqueID: 2419925805
    locked: 0
  - name: Default
    uniqueID: 0
    locked: 0
  - name: Character
    uniqueID: 3515812013
    locked: 0
  - name: Wall
    uniqueID: 465195781
    locked: 0
